<?xml version="1.0" encoding="UTF-8" standalone="no"?>
<!-- Created with Inkscape (http://www.inkscape.org/) -->

<svg
   xmlns:dc="http://purl.org/dc/elements/1.1/"
   xmlns:cc="http://creativecommons.org/ns#"
   xmlns:rdf="http://www.w3.org/1999/02/22-rdf-syntax-ns#"
   xmlns:svg="http://www.w3.org/2000/svg"
   xmlns="http://www.w3.org/2000/svg"
   xmlns:sodipodi="http://sodipodi.sourceforge.net/DTD/sodipodi-0.dtd"
   xmlns:inkscape="http://www.inkscape.org/namespaces/inkscape"
   version="1.1"
   id="svg5011"
   width="100"
   height="100"
   viewBox="0 0 100 100"
   sodipodi:docname="Psycho01.svg"
   inkscape:version="0.92.4 (5da689c313, 2019-01-14)">
  <metadata
     id="metadata5017">
    <rdf:RDF>
      <cc:Work
         rdf:about="">
        <dc:format>image/svg+xml</dc:format>
        <dc:type
           rdf:resource="http://purl.org/dc/dcmitype/StillImage" />
        <dc:title></dc:title>
      </cc:Work>
    </rdf:RDF>
  </metadata>
  <defs
     id="defs5015" />
  <sodipodi:namedview
     pagecolor="#ffffff"
     bordercolor="#666666"
     borderopacity="1"
     objecttolerance="10"
     gridtolerance="10"
     guidetolerance="10"
     inkscape:pageopacity="0"
     inkscape:pageshadow="2"
     inkscape:window-width="1366"
     inkscape:window-height="671"
     id="namedview5013"
     showgrid="false"
     inkscape:zoom="4.8"
     inkscape:cx="50"
     inkscape:cy="50"
     inkscape:window-x="0"
     inkscape:window-y="27"
     inkscape:window-maximized="1"
     inkscape:current-layer="svg5011" />
  <path
     style="fill:none;stroke-width:0.933;stroke-miterlimit:4;stroke-dasharray:none;stroke:#000000;stroke-opacity:1"
     d="m 43.905064,96.86019 c -1.2274,-0.309207 -3.942451,-2.426654 -4.704883,-3.669322 -0.388853,-0.633776 -0.89123,-2.158315 -1.116395,-3.387868 -0.225176,-1.229545 -0.673368,-2.52723 -0.996007,-2.88375 -0.768452,-0.849131 -2.849304,-1.333545 -7.84969,-1.827382 -2.995813,-0.295862 -4.496354,-0.632303 -5.60882,-1.257548 -2.752976,-1.547253 -4.170213,-5.438429 -3.33621,-9.15991 0.350073,-1.562148 0.301592,-2.014351 -0.363229,-3.387722 -0.421988,-0.871713 -0.76837,-2.253709 -0.769742,-3.071094 -0.0015,-0.817397 -0.314673,-1.95962 -0.696225,-2.538281 -0.585431,-0.887863 -0.641979,-1.382157 -0.362174,-3.166315 0.18235,-1.16281 0.283157,-2.134248 0.224045,-2.158745 -2.462135,-1.020187 -3.763512,-2.022863 -4.440454,-3.421247 -0.421659,-0.871024 -0.76665,-1.83018 -0.76665,-2.131466 0,-0.301291 0.679946,-1.711353 1.51099,-3.133483 0.831048,-1.42213 1.510994,-2.656003 1.510994,-2.741938 0,-0.219446 3.126385,-5.196119 3.408795,-5.426196 0.127498,-0.103898 0.500613,-0.872286 0.829118,-1.707564 0.536422,-1.363945 0.539163,-1.671859 0.02677,-3.021984 -0.9296,-2.449985 -0.771476,-6.662579 0.396733,-10.569253 2.178911,-7.286663 3.758147,-11.899062 4.074114,-11.899062 0.181671,0 0.330281,-0.261857 0.330281,-0.581914 0,-0.519537 1.052054,-2.249329 2.077617,-3.416037 2.24908,-2.5586111 2.463779,-2.7570849 6.101173,-5.6399789 1.713212,-1.357842 6.971892,-3.880428 9.493211,-4.5538827 4.867252,-1.30005694 15.623669,-1.0619049 21.991544,0.4869163 10.326803,2.5117212 18.758837,12.2308093 22.049502,25.4150903 2.342411,9.385041 1.348138,18.664913 -2.893827,27.008984 -4.612022,9.07197 -5.188824,10.541571 -6.324261,16.11325 -0.942972,4.627245 -1.031222,14.011427 -0.170248,18.104315 0.622628,2.95986 0.444983,5.036411 -0.525735,6.145711 -1.511662,1.727454 -1.824699,1.758077 -17.499571,1.711809 -8.164955,-0.02413 -15.185342,-0.129458 -15.600868,-0.234149 z M 75.46519,94.399468 c 0.877885,-0.929092 0.874235,-1.714324 -0.03468,-7.46052 -0.546967,-3.457879 -0.252546,-11.653634 0.587474,-16.354373 0.784033,-4.387381 2.154116,-8.001598 5.622453,-14.831802 1.576364,-3.104345 3.212813,-6.919162 3.636553,-8.47737 C 86.305234,43.49424 86.658693,36.494889 86.036573,32.23369 84.851426,24.116115 80.967594,16.105179 75.705196,10.923849 73.534745,8.7868372 69.963687,6.1008638 69.292927,6.1008638 c -0.169984,0 -1.107189,-0.3660571 -2.082654,-0.8134272 C 62.69288,3.215591 50.549264,2.3425429 44.282807,3.6391014 c -4.294498,0.8885499 -9.905543,3.935951 -13.14654,7.1399796 -1.495383,1.478328 -2.929686,3.027843 -3.187343,3.443365 -1.208392,1.948759 -3.121683,6.254005 -3.469935,7.807957 -0.21266,0.948929 -0.570058,2.207721 -0.79422,2.797314 -1.959838,5.154763 -2.761488,11.505779 -1.689095,13.381729 0.726105,1.270188 0.702106,3.17525 -0.05851,4.646173 -0.775506,1.499677 -2.113073,3.433236 -2.491277,3.601324 -0.155848,0.06925 -0.283308,0.265401 -0.283308,0.435898 0,0.273959 -0.526512,1.243215 -3.445936,6.343582 -0.390113,0.681545 -0.709291,1.549153 -0.709291,1.928016 0,1.006718 1.615514,2.584703 3.36132,3.283235 1.836574,0.734851 2.133378,1.503367 1.538409,3.983463 -0.424113,1.767916 -0.39832,1.949505 0.397174,2.796273 0.681888,0.725834 0.806181,1.180246 0.626199,2.289342 -0.157808,0.972544 -0.01018,1.804119 0.497095,2.798309 0.592315,1.161027 0.7079,2.11742 0.644898,5.336178 -0.06416,3.279062 0.03796,4.090736 0.623382,4.953775 1.352957,1.994525 2.863902,2.576936 7.309848,2.817671 4.611664,0.249718 7.734414,1.18115 8.651288,2.580476 0.320629,0.489326 0.820311,2.024194 1.110434,3.410827 0.587038,2.805747 0.84923,3.226882 2.966669,4.765148 l 1.473235,1.070266 H 59.434707 74.662111 Z M 69.23642,43.674781 c -0.403292,-0.305023 -0.573277,-0.569221 -0.377747,-0.587075 0.48033,-0.04384 -1.32642,-0.622071 -4.715069,-1.508936 -2.7797,-0.727489 -2.810919,-0.727455 -3.589712,0.0041 -0.432098,0.405931 -1.320279,0.83225 -1.973741,0.947379 -0.95599,0.168439 -1.417019,-0.0045 -2.359814,-0.885229 C 55.5759,41.043058 55.04863,40.193745 55.04863,39.7577 c 0,-0.436045 -0.18676,-0.792813 -0.415096,-0.792813 -0.228305,0 -0.950745,-0.240331 -1.60543,-0.534044 -2.536206,-1.137869 -3.946378,-1.422519 -4.795623,-0.968016 -1.098511,0.587901 -2.387405,0.201237 -2.972316,-0.891671 -0.403858,-0.754621 -0.384549,-1.094153 0.11747,-2.064917 0.739729,-1.43048 0.322138,-5.634931 -0.611583,-6.157461 -0.315164,-0.176394 -0.769195,-0.794284 -1.008964,-1.373129 -0.607146,-1.465782 -4.552873,-3.34695 -6.676309,-3.183001 -1.737241,0.134133 -2.524961,-0.494584 -2.524961,-2.015297 0,-1.351814 0.798287,-2.139972 2.03599,-2.010148 0.746285,0.07826 1.617471,-0.307133 2.960358,-1.3097 1.046576,-0.781342 2.326638,-1.613701 2.84458,-1.849697 0.517939,-0.235995 0.941713,-0.557907 0.941713,-0.715376 0,-0.157468 0.59495,-0.654002 1.322115,-1.103419 1.029819,-0.63646 1.322122,-1.064642 1.322122,-1.936717 0,-1.683475 1.597559,-3.1266785 3.1233,-2.821532 0.651462,0.130288 1.570039,0.599109 2.041276,1.041808 0.823074,0.773244 1.073701,0.79437 6.369337,0.536913 4.729183,-0.229926 5.616504,-0.371976 6.24414,-0.999596 1.407378,-1.407375 3.753586,-0.431816 3.753586,1.560749 0,0.855311 0.565477,1.7113 2.418913,3.661619 1.330405,1.399952 3.050742,3.267805 3.822964,4.15079 0.772226,0.88299 1.723552,1.605434 2.114057,1.605434 0.390509,0 0.710015,0.169985 0.710015,0.377748 0,0.207759 0.235129,0.377743 0.522568,0.377743 0.785485,0 1.038886,1.566593 0.408917,2.528041 -0.599251,0.914578 -0.778763,5.026922 -0.219445,5.026922 0.666778,0 1.619669,1.955175 1.393011,2.858235 -0.281838,1.122974 -1.650963,2.430235 -2.54522,2.430235 -0.40235,0 -0.962802,0.572761 -1.386136,1.416558 -0.390874,0.779106 -0.98875,1.926516 -1.328606,2.549801 -0.339856,0.623285 -0.618972,1.849708 -0.620254,2.72538 -0.0019,1.185958 -0.188759,1.691904 -0.732989,1.983182 -1.000772,0.535597 -1.963789,0.471886 -2.835706,-0.18759 z m -1.155481,-4.709836 c -1.07064,-2.112809 -1.489438,-2.238449 -3.77748,-1.133247 -0.831047,0.401427 -1.808469,0.735628 -2.172053,0.742678 -1.565416,0.03054 -0.432162,0.681579 2.455365,1.410971 4.705105,1.188513 4.625318,1.211815 3.494168,-1.020402 z m 5.671575,-4.464661 c -0.281913,-0.281913 -4.449295,1.263301 -4.622201,1.713891 -0.102051,0.265928 0.213942,1.31235 0.702174,2.325386 l 0.887713,1.841893 1.580081,-2.876662 c 0.869044,-1.582166 1.522552,-2.934195 1.452233,-3.004508 z m -17.295966,2.198172 c 0.528249,-0.415526 1.171888,-0.755499 1.430307,-0.755499 0.258426,0 0.642074,-0.46746 0.852566,-1.038807 1.701076,-4.617209 1.713121,-4.673863 1.120112,-5.266876 -0.688406,-0.688402 -0.870631,-0.604741 -6.031686,2.769217 -2.021876,1.321775 -3.849232,2.403223 -4.060788,2.403223 -0.211566,0 -0.38465,0.147591 -0.38465,0.327981 0,0.18039 0.977425,0.606313 2.17205,0.946505 1.194631,0.340195 2.427034,0.78496 2.738676,0.988365 0.804791,0.525279 1.080691,0.477571 2.163413,-0.374087 z m 9.07459,-1.129556 c 0.683098,-0.0053 0.595489,-0.472791 -0.566619,-3.023074 -0.902427,-1.980399 -1.162792,-2.266599 -1.983178,-2.179951 -0.800327,0.08452 -1.068985,0.474253 -1.76133,2.555101 -1.453213,4.367612 -1.125443,4.960926 1.950202,3.530212 1.038807,-0.483229 2.101224,-0.880256 2.360925,-0.882288 z m 5.855097,-2.347226 c 0.986865,-0.424317 1.794144,-0.878039 1.793951,-1.008274 -1.92e-4,-0.130212 -1.536629,-0.986677 -3.41431,-1.903192 -4.296312,-2.097085 -4.728308,-1.870959 -3.161893,1.655121 1.234962,2.779976 1.237221,2.780568 4.782252,1.256345 z m -19.623082,-1.5561 c 1.70313,-1.105994 3.903741,-2.508381 4.890233,-3.116421 0.986495,-0.608039 1.793928,-1.233017 1.794298,-1.388838 3.77e-4,-0.155848 -2.179518,-0.283308 -4.844199,-0.283308 -4.5614,0 -4.892438,0.05063 -5.657788,0.865301 -0.701363,0.746568 -0.781025,1.148285 -0.580553,2.927549 0.205761,1.826191 0.652928,3.006614 1.138966,3.006614 0.08935,0 1.555908,-0.904904 3.259043,-2.010897 z m 23.229838,-3.943525 c 0.137639,-2.891806 -0.07182,-3.022 -3.831336,-2.381547 -3.778486,0.643684 -4.025087,0.739383 -4.025087,1.56196 0,0.440569 0.262121,0.733034 0.661059,0.737595 0.363569,0.0041 1.765975,0.593405 3.116425,1.309444 3.489112,1.85001 3.938929,1.714652 4.078939,-1.227452 z M 57.126244,25.035582 c 0.817668,-0.173906 1.168744,-0.491456 1.260729,-1.14027 0.07012,-0.494573 -0.05236,-1.01039 -0.272224,-1.146257 -0.219823,-0.135867 -2.090439,-1.897548 -4.156878,-3.914828 -2.399424,-2.342355 -3.95623,-3.591409 -4.308021,-3.456412 -0.346379,0.132926 -0.848793,1.610598 -1.353515,3.980922 -0.928812,4.361964 -0.965067,4.938284 -0.349356,5.55398 0.48223,0.482226 7.074927,0.570468 9.17928,0.122861 z M 45.086652,23.943676 c 0.503556,-0.327981 2.160604,-7.249345 1.971106,-8.233164 -0.114228,-0.592979 -0.202217,-0.609917 -0.697333,-0.134171 -0.311658,0.299443 -2.138999,1.715274 -4.060791,3.146286 -1.921793,1.431008 -3.494168,2.709942 -3.494168,2.842077 0,0.329678 4.585964,2.618669 5.288469,2.639611 0.311658,0.009 0.758365,-0.10797 0.992717,-0.260613 z m 25.028347,-0.12207 c 4.77418,-0.785526 4.618352,-0.392857 1.454702,-3.665649 -1.547928,-1.60134 -3.43017,-3.580744 -4.182759,-4.398676 -0.752585,-0.81794 -1.428565,-1.412894 -1.502184,-1.322122 -0.176846,0.218051 -1.392427,5.906439 -1.392427,6.515922 0,0.555254 2.299729,3.25015 2.789555,3.268898 0.183783,0.0068 1.45871,-0.172247 2.833113,-0.398373 z m -8.318888,-2.374851 c 0.744159,-0.150155 1.065291,-0.910837 1.375433,-3.257953 0.150984,-1.142687 0.430922,-2.375089 0.622074,-2.738673 0.220049,-0.418504 0.199202,-0.938268 -0.05677,-1.416555 -0.377571,-0.705498 -0.790936,-0.755495 -6.246134,-0.755495 -4.289726,0 -5.841804,0.120335 -5.841804,0.453006 0,0.249153 1.827356,2.202164 4.060791,4.34002 3.105164,2.972286 4.23858,3.839065 4.816287,3.683266 0.415522,-0.112041 0.987083,-0.250509 1.270139,-0.307623 z"
     id="path5023"
     inkscape:connector-curvature="0" />
</svg>
